{

    "$schema": "https://schema.management.azure.com/schemas/2019-04-01/deploymentTemplate.json#",

    "contentVersion": "1.0.0.0",

    "parameters": {

        "StorageAccountName": {

            "type": "string"

        }

    },

    "functions": [],

    "variables": {},

    "resources": [

        {

            "name": "[parameters('StorageAccountName')]",

            "type": "Microsoft.Storage/storageAccounts",

            "apiVersion": "2021-01-01",

            "tags": {},

            "location": "[resourceGroup().location]",

            "kind": "StorageV2",

            "sku": {

                "name": "Standard_LRS",

                "tier": "Standard"

            },

            "properties": {}

        }

    ],

    "outputs": {}

}
